{
  "version": 1,
  "author": "Uri Shaked",
  "editor": "wokwi",
  "parts": [
    { "type": "wokwi-arduino-uno", "id": "uno", "top": 120, "left": 20, "attrs": {} },
    { "type": "wokwi-led", "id": "ledrn", "top": -5, "left": 50, "attrs": { "color": "red" } },
    { "type": "wokwi-led", "id": "ledyn", "top": -5, "left": 130, "attrs": { "color": "yellow" } },
    { "type": "wokwi-led", "id": "ledgn", "top": -5, "left": 210, "attrs": { "color": "green" } },
    {
      "type": "wokwi-led",
      "id": "ledrs",
      "top": 400,
      "left": 50,
      "rotate": 180,
      "attrs": { "color": "red" }
    },
    {
      "type": "wokwi-led",
      "id": "ledys",
      "top": 400,
      "left": 130,
      "rotate": 180,
      "attrs": { "color": "yellow" }
    },
    {
      "type": "wokwi-led",
      "id": "ledgs",
      "top": 400,
      "left": 210,
      "rotate": 180,
      "attrs": { "color": "green" }
    },
    {
      "type": "wokwi-led",
      "id": "ledrw",
      "top": 110.43,
      "left": -120,
      "rotate": 270,
      "attrs": { "color": "red" }
    },
    {
      "type": "wokwi-led",
      "id": "ledyw",
      "top": 180,
      "left": -120,
      "rotate": 270,
      "attrs": { "color": "yellow" }
    },
    {
      "type": "wokwi-led",
      "id": "ledgw",
      "top": 250,
      "left": -120,
      "rotate": 270,
      "attrs": { "color": "green" }
    },
    {
      "type": "wokwi-led",
      "id": "ledre",
      "top": 110,
      "left": 400,
      "rotate": 90,
      "attrs": { "color": "red" }
    },
    {
      "type": "wokwi-led",
      "id": "ledye",
      "top": 180,
      "left": 400,
      "rotate": 90,
      "attrs": { "color": "yellow" }
    },
    {
      "type": "wokwi-led",
      "id": "ledge",
      "top": 250,
      "left": 400,
      "rotate": 90,
      "attrs": { "color": "green" }
    }
  ],
  "connections": [
    [ "ledrn:C", "uno:GND.1", "green", [ "v0" ] ],
    [ "ledrn:A", "uno:13", "green", [ "v0" ] ],
    [ "ledyn:C", "uno:GND.1", "green", [ "v0" ] ],
    [ "ledyn:A", "uno:12", "green", [ "v0" ] ],
    [ "ledgn:C", "uno:GND.1", "green", [ "v0" ] ],
    [ "ledgn:A", "uno:11", "green", [ "v0" ] ],
    [ "ledrs:C", "uno:GND.1", "green", [ "v0" ] ],
    [ "ledrs:A", "uno:13", "green", [ "v0" ] ],
    [ "ledys:C", "uno:GND.1", "green", [ "v0" ] ],
    [ "ledys:A", "uno:12", "green", [ "v0" ] ],
    [ "ledgs:C", "uno:GND.1", "green", [ "v0" ] ],
    [ "ledgs:A", "uno:11", "green", [ "v0" ] ],
    [ "ledrw:C", "uno:GND.1", "green", [ "h0" ] ],
    [ "ledrw:A", "uno:7", "green", [ "h0" ] ],
    [ "ledyw:C", "uno:GND.1", "green", [ "h0" ] ],
    [ "ledyw:A", "uno:6", "green", [ "h0" ] ],
    [ "ledgw:C", "uno:GND.1", "green", [ "h0" ] ],
    [ "ledgw:A", "uno:5", "green", [ "h0" ] ],
    [ "ledre:C", "uno:GND.1", "green", [ "h0" ] ],
    [ "ledre:A", "uno:7", "green", [ "h0" ] ],
    [ "ledye:C", "uno:GND.1", "green", [ "h0" ] ],
    [ "ledye:A", "uno:6", "green", [ "h0" ] ],
    [ "ledge:C", "uno:GND.1", "green", [ "h0" ] ],
    [ "ledge:A", "uno:5", "green", [ "h0" ] ]
  ]
}